…
It looks like our situations of interest in the *description* field are prefixed by "hit\_into". Let's check to ensure that the *events* associated with these make sense to use.

``` r
statcast17 %>%
    filter(description %in% c("hit_into_play", "hit_into_play_no_out", "hit_into_play_score")) %>%
    group_by(description, events) %>%
    summarize(total = n()) %>%
    mutate(proportion_of_total = round(total / sum(total), 2)) %>%
    arrange(description, desc(total))
```

    ## # A tibble: 37 x 4
    ## # Groups:   description [3]
    ##      description                    events total proportion_of_total
    ##            <chr>                     <chr> <int>               <dbl>
    ##  1 hit_into_play                 field_out 55157                0.89
    ##  2 hit_into_play grounded_into_double_play  2833                0.05
    ##  3 hit_into_play                 force_out  2554                0.04
    ##  4 hit_into_play                  sac_bunt   642                0.01
    ##  5 hit_into_play               double_play   314                0.01
    ##  6 hit_into_play                    single   272                0.00
    ##  7 hit_into_play       fielders_choice_out   228                0.00
    ##  8 hit_into_play                    double    54                0.00
    ##  9 hit_into_play               field_error    11                0.00
    ## 10 hit_into_play               triple_play     4                0.00
    ## # ... with 27 more rows
…
